{
    "/js/app.js": "/js/app.js",
    "/css/app.css": "/css/app.css",
    "/secure/css/app.css": "/secure/css/app.css",
    "/secure/js/app.js": "/secure/js/app.js",
    "/secure/js/gapi-components.js": "/secure/js/gapi-components.js"
}
